{
    "name": "QSODashboards",
    "alias": "qsodashboards",
    "description": "",
    "keywords": [],
    "active": 1,
    "order": 1,
    "providers": [
        "Modules\\QSODashboards\\Providers\\QSODashboardsServiceProvider",
        "Modules\\QSODashboards\\Providers\\RouteServiceProvider"
    ],
    "aliases": {},
    "files": [
        
    ],
    "requires": []
}
